TidyR - TidyR 2019
…
###Exercícios

8.Compare e contraste os argumento de fill( ) aos de pivot_wider( ) e complete( ).

O que faz o argumento direction em fill( )?

###Estudo de Caso

Para finalizar este capítulo, vamos por em uso tudo que estudamos para resolver um problema real de organização de um conjunto de dados. O conjunto de dados tidyr::who contém casos de tuberculose (TB) dispostos por ano (year), país (country), idade (age), gênero (gender), e método de diagnose. method (key). Os dados encontram-se no Relatório de 2014 da World Health Organization Global Tuberculosis, disponíveis em http://www.who.int/tb/country/data/download/en/.

Neste conjunto de dados temos a informação epidemiológica, contudo é desafiante trabalhar com os dados na forma em que foram fornecidos:

who

# A tibble: 7,240 × 60
   country  iso2  iso3   year new_sp_m014 new_sp_m1524 new_sp_m2534 new_sp_m3544
   <chr>    <chr> <chr> <dbl>       <dbl>        <dbl>        <dbl>        <dbl>
 1 Afghani… AF    AFG    1980          NA           NA           NA           NA
 2 Afghani… AF    AFG    1981          NA           NA           NA           NA
 3 Afghani… AF    AFG    1982          NA           NA           NA           NA
 4 Afghani… AF    AFG    1983          NA           NA           NA           NA
 5 Afghani… AF    AFG    1984          NA           NA           NA           NA
 6 Afghani… AF    AFG    1985          NA           NA           NA           NA
 7 Afghani… AF    AFG    1986          NA           NA           NA           NA
 8 Afghani… AF    AFG    1987          NA           NA           NA           NA
 9 Afghani… AF    AFG    1988          NA           NA           NA           NA
10 Afghani… AF    AFG    1989          NA           NA           NA           NA
# ℹ 7,230 more rows
# ℹ 52 more variables: new_sp_m4554 <dbl>, new_sp_m5564 <dbl>,
#   new_sp_m65 <dbl>, new_sp_f014 <dbl>, new_sp_f1524 <dbl>,
#   new_sp_f2534 <dbl>, new_sp_f3544 <dbl>, new_sp_f4554 <dbl>,
#   new_sp_f5564 <dbl>, new_sp_f65 <dbl>, new_sn_m014 <dbl>,
#   new_sn_m1524 <dbl>, new_sn_m2534 <dbl>, new_sn_m3544 <dbl>,
#   new_sn_m4554 <dbl>, new_sn_m5564 <dbl>, new_sn_m65 <dbl>, …
…
Não sabermos ainda o que as demais colunas significam, mas pela estrutura presente no nome das variáveis (e.g. new_sp_m014, new_ep_m014, new_ep_f014) parecem ser valores, e não variáveis.

Então precisaremos coletar, pivot_longer( ), todas as colunas de new_sp_m014 até newrel_f65. Não conhecemos ainda, o que estes valores representam então atribuiremos nome genérico “key”. Sabemos que as células representam a contagem dos casos, então utilizaremos a variável cases. Há um grande número de dados faltantes, então por hora utilizaremos values_drop_na para permitir que o foco esteja sobre os valores presentes.

who1 <- who %>% 
  pivot_longer(
    cols = new_sp_m014:newrel_f65, 
    names_to = "key", 
    values_to = "cases", 
    values_drop_na = TRUE
  )
who1

# A tibble: 76,046 × 6
   country     iso2  iso3   year key          cases
   <chr>       <chr> <chr> <dbl> <chr>        <dbl>
 1 Afghanistan AF    AFG    1997 new_sp_m014      0
 2 Afghanistan AF    AFG    1997 new_sp_m1524    10
 3 Afghanistan AF    AFG    1997 new_sp_m2534     6
 4 Afghanistan AF    AFG    1997 new_sp_m3544     3
 5 Afghanistan AF    AFG    1997 new_sp_m4554     5
 6 Afghanistan AF    AFG    1997 new_sp_m5564     2
 7 Afghanistan AF    AFG    1997 new_sp_m65       0
 8 Afghanistan AF    AFG    1997 new_sp_f014      5
 9 Afghanistan AF    AFG    1997 new_sp_f1524    38
10 Afghanistan AF    AFG    1997 new_sp_f2534    36
# ℹ 76,036 more rows

Podemos ter um palpite sobre a estrutura dos valores contando eles:

who1 %>% 
  count(key)

# A tibble: 56 × 2
   key              n
   <chr>        <int>
 1 new_ep_f014   1032
 2 new_ep_f1524  1021
 3 new_ep_f2534  1021
 4 new_ep_f3544  1021
 5 new_ep_f4554  1017
 6 new_ep_f5564  1017
 7 new_ep_f65    1014
 8 new_ep_m014   1038
 9 new_ep_m1524  1026
10 new_ep_m2534  1020
# ℹ 46 more rows
…
As próximas duas letras descrevem o tipo de TB:

rel significam casos de recaída, relapse. ep significam casos de TB extrapulmonar sn significam casos de TB pulmonar que não puderam ser diagnosticados por um esfregaço pulmonar (smear negative) sp stands for cases of pulmonary TB pulmonar que puderam ser diagnosticados por um esfregaço pulmonar (smear positive) A sexta letra corresponde ao sexo dos pacientes de TB. No conjunto de dados casos agrupados por masculino (m) e feminino (f).

Os números remanecentes coresponde ao grupo etário. O conjunto de dados agrupam os pacientes em sete grupos etários:

014 = 0 – 14 Anos de idade = 15 – 24 Anos de idade = 25 – 34 Anos de idade = 35 – 44 Anos de idade = 45 – 54 Anos de idade = 55 – 64 Anos de idade = 65 ou mais velhos.

Precisaremos fazer uma pequena correção no formato dos nomes destas colunas: desafortunadamente os nomes são levemente inconsistentes pois em vez de new_rel temos newrel ( e apesar de difícil identifcar isso aqui se não ajustar teremos erros nos passos subsequentes ). Quando estudar strings aprenderá sobre str_replace(),mas a ideia é bem simples: substitui os caractéres de “newrel” por “new_rel”. Tornando o nome das variáveis consistente.

who2 <- who1 %>% 
  mutate(key = stringr::str_replace(key, "newrel", "new_rel"))
who2

# A tibble: 76,046 × 6
   country     iso2  iso3   year key          cases
   <chr>       <chr> <chr> <dbl> <chr>        <dbl>
 1 Afghanistan AF    AFG    1997 new_sp_m014      0
 2 Afghanistan AF    AFG    1997 new_sp_m1524    10
 3 Afghanistan AF    AFG    1997 new_sp_m2534     6
 4 Afghanistan AF    AFG    1997 new_sp_m3544     3
 5 Afghanistan AF    AFG    1997 new_sp_m4554     5
 6 Afghanistan AF    AFG    1997 new_sp_m5564     2
 7 Afghanistan AF    AFG    1997 new_sp_m65       0
 8 Afghanistan AF    AFG    1997 new_sp_f014      5
 9 Afghanistan AF    AFG    1997 new_sp_f1524    38
10 Afghanistan AF    AFG    1997 new_sp_f2534    36
# ℹ 76,036 more rows

Podemos separar os valores de cada código com dois passos de separate( ). O primeiro passo separa os valores com cada “_”.

who3 <- who2 %>% 
  separate(key, c("new", "type", "sexage"), sep = "_")
who3

# A tibble: 76,046 × 8
   country     iso2  iso3   year new   type  sexage cases
   <chr>       <chr> <chr> <dbl> <chr> <chr> <chr>  <dbl>
 1 Afghanistan AF    AFG    1997 new   sp    m014       0
 2 Afghanistan AF    AFG    1997 new   sp    m1524     10
 3 Afghanistan AF    AFG    1997 new   sp    m2534      6
 4 Afghanistan AF    AFG    1997 new   sp    m3544      3
 5 Afghanistan AF    AFG    1997 new   sp    m4554      5
 6 Afghanistan AF    AFG    1997 new   sp    m5564      2
 7 Afghanistan AF    AFG    1997 new   sp    m65        0
 8 Afghanistan AF    AFG    1997 new   sp    f014       5
 9 Afghanistan AF    AFG    1997 new   sp    f1524     38
10 Afghanistan AF    AFG    1997 new   sp    f2534     36
# ℹ 76,036 more rows

Poderemos retirar a coluna new pois éuma constante no conjunto de dados em análise. E já que estamos retirando colunas vamos retirar também retirar as redundantes iso2 e iso3.

(who4 <- who3 %>% 
  select(-new, -iso2, -iso3))

# A tibble: 76,046 × 5
   country      year type  sexage cases
   <chr>       <dbl> <chr> <chr>  <dbl>
 1 Afghanistan  1997 sp    m014       0
 2 Afghanistan  1997 sp    m1524     10
 3 Afghanistan  1997 sp    m2534      6
 4 Afghanistan  1997 sp    m3544      3
 5 Afghanistan  1997 sp    m4554      5
 6 Afghanistan  1997 sp    m5564      2
 7 Afghanistan  1997 sp    m65        0
 8 Afghanistan  1997 sp    f014       5
 9 Afghanistan  1997 sp    f1524     38
10 Afghanistan  1997 sp    f2534     36
# ℹ 76,036 more rows

Agora iremos separar sexo e idade, “sexage” em “sex” e “age” dividindo após o primeiro caracter:

who5 <- who4 %>% 
  separate(sexage, c("sex", "age"), sep = 1)
who5

# A tibble: 76,046 × 6
   country      year type  sex   age   cases
   <chr>       <dbl> <chr> <chr> <chr> <dbl>
 1 Afghanistan  1997 sp    m     014       0
 2 Afghanistan  1997 sp    m     1524     10
 3 Afghanistan  1997 sp    m     2534      6
 4 Afghanistan  1997 sp    m     3544      3
 5 Afghanistan  1997 sp    m     4554      5
 6 Afghanistan  1997 sp    m     5564      2
 7 Afghanistan  1997 sp    m     65        0
 8 Afghanistan  1997 sp    f     014       5
 9 Afghanistan  1997 sp    f     1524     38
10 Afghanistan  1997 sp    f     2534     36
# ℹ 76,036 more rows
…
who %>%
  pivot_longer(
    cols = new_sp_m014:newrel_f65, 
    names_to = "key", 
    values_to = "cases", 
    values_drop_na = TRUE
  ) %>% 
  mutate(
    key = stringr::str_replace(key, "newrel", "new_rel")
  ) %>%
  separate(key, c("new", "var", "sexage")) %>% 
  select(-new, -iso2, -iso3) %>% 
  separate(sexage, c("sex", "age"), sep = 1)

# A tibble: 76,046 × 6
   country      year var   sex   age   cases
   <chr>       <dbl> <chr> <chr> <chr> <dbl>
 1 Afghanistan  1997 sp    m     014       0
 2 Afghanistan  1997 sp    m     1524     10
 3 Afghanistan  1997 sp    m     2534      6
 4 Afghanistan  1997 sp    m     3544      3
 5 Afghanistan  1997 sp    m     4554      5
 6 Afghanistan  1997 sp    m     5564      2
 7 Afghanistan  1997 sp    m     65        0
 8 Afghanistan  1997 sp    f     014       5
 9 Afghanistan  1997 sp    f     1524     38
10 Afghanistan  1997 sp    f     2534     36
# ℹ 76,036 more rows
…
